project1/test.vcd
$date
	Thu Sep 10 17:40:51 2015
$end
$version
	Icarus Verilog
$end
$timescale
	1ps
$end
$scope module testbench $end
$scope module uut $end
$var wire 2 ! br_cfg [1:0] $end
$var wire 1 " clk $end
$var wire 8 # databus [7:0] $end
$var wire 1 $ rst $end
$var wire 1 % rxd $end
$var wire 1 & txd $end
$var wire 1 ' tbr $end
$var wire 1 ( rda $end
$var wire 1 ) iorw $end
$var wire 1 * iocs $end
$var wire 2 + ioaddr [1:0] $end
$scope module driver0 $end
$var wire 2 , br_cfg [1:0] $end
$var wire 1 " clk $end
$var wire 8 - databus [7:0] $end
$var wire 1 $ rst $end
$var wire 1 ' tbr $end
$var wire 1 ( rda $end
$var wire 16 . divisor [15:0] $end
$var reg 2 / currentState [1:0] $end
$var reg 1 0 dataAvailableToRead $end
$var reg 1 1 dataAvailableToWrite $end
$var reg 8 2 internalData [7:0] $end
$var reg 2 3 ioaddr [1:0] $end
$var reg 1 * iocs $end
$var reg 1 ) iorw $end
$var reg 2 4 nextState [1:0] $end
$var reg 8 5 statusRegister [7:0] $end
$upscope $end
$scope module spart0 $end
$var wire 1 " clk $end
$var wire 8 6 databus [7:0] $end
$var wire 2 7 ioaddr [1:0] $end
$var wire 1 * iocs $end
$var wire 1 ) iorw $end
$var wire 1 $ rst $end
$var wire 1 % rxd $end
$var wire 1 8 txenable $end
$var wire 1 & txd $end
$var wire 1 ' tbr $end
$var wire 1 9 rxenable $end
$var wire 8 : rxBuffer [7:0] $end
$var wire 1 ( rda $end
$var wire 8 ; data [7:0] $end
$scope module bi0 $end
$var wire 8 < data [7:0] $end
$var wire 8 = databus [7:0] $end
$var wire 2 > ioaddr [1:0] $end
$var wire 1 * iocs $end
$var wire 1 ) iorw $end
$var wire 1 ' tbr $end
$var wire 8 ? rxBuffer [7:0] $end
$var wire 1 ( rda $end
$var reg 8 @ internalDataBus [7:0] $end
$upscope $end
$scope module brg0 $end
$var wire 1 " clk $end
$var wire 8 A data [7:0] $end
$var wire 2 B ioaddr [1:0] $end
$var wire 1 $ rst $end
$var wire 1 9 rxenable $end
$var wire 1 8 txenable $end
$var wire 1 C loadCounter $end
$var wire 16 D count [15:0] $end
$var reg 16 E divisor [15:0] $end
$var reg 1 F enable $end
$scope module dc0 $end
$var wire 1 " clk $end
$var wire 16 G divisor [15:0] $end
$var wire 1 $ rst $end
$var wire 1 C load $end
$var wire 16 H count [15:0] $end
$var reg 16 I tmpCount [15:0] $end
$upscope $end
$scope module dec0 $end
$var wire 16 J count [15:0] $end
$var wire 1 C zero $end
$upscope $end
$upscope $end
$scope module rx0 $end
$var wire 1 " clk $end
$var wire 1 9 enable $end
$var wire 1 % in $end
$var wire 2 K ioaddr [1:0] $end
$var wire 1 * iocs $end
$var wire 1 ) iorw $end
$var wire 1 $ rst $end
$var reg 8 L data [7:0] $end
$var reg 1 ( rda $end
$var reg 10 M shiftReg [9:0] $end
$upscope $end
$scope module tx0 $end
$var wire 1 " clk $end
$var wire 8 N data [7:0] $end
$var wire 1 8 enable $end
$var wire 2 O ioaddr [1:0] $end
$var wire 1 * iocs $end
$var wire 1 ) iorw $end
$var wire 1 $ rst $end
$var reg 1 & out $end
$var reg 10 P shiftReg [9:0] $end
$var reg 1 ' tbr $end
$upscope $end
$upscope $end
$upscope $end
$upscope $end
$enddefinitions $end
#0
$dumpvars
bx P
bx O
bx N
bx M
bx L
bx K
bx J
bx I
bx H
bx G
xF
bx E
bx D
xC
bx B
bx A
bx @
bx ?
bx >
bx =
bx <
bx ;
bx :
x9
x8
bx 7
bx 6
bx 5
bx 4
bx 3
bx 2
x1
x0
bx /
b10100010101 .
bx -
b0 ,
bx +
x*
x)
x(
x'
x&
z%
0$
bx #
0"
b0 !
$end
#1000
1$
#5000
b0 #
b0 -
b0 6
b0 =
bz ;
bz <
bz A
bz N
bz @
b1 P
1&
1'
0(
b0 :
b0 ?
b0 L
b1 M
0)
0*
b0 5
b0 2
01
00
b11 4
b10 /
b10 +
b10 3
b10 7
b10 >
b10 B
b10 K
b10 O
1C
b0 D
b0 H
b0 I
b0 J
08
09
0F
1"
#10000
0"
#11000
0$
#15000
b10101 #
b10101 -
b10101 6
b10101 =
b10101 ;
b10101 <
b10101 A
b10101 N
b10101 @
b11 /
b10101 2
1*
bxzzzzzzzz E
bxzzzzzzzz G
xC
bx D
bx H
bx I
bx J
1"
#20000
0"
#25000
b101 ;
b101 <
b101 A
b101 N
b101 @
b101 #
b101 -
b101 6
b101 =
bx00010101 E
bx00010101 G
b0 4
b101 2
b11 +
b11 3
b11 7
b11 >
b11 B
b11 K
b11 O
1"
#30000
0"
#35000
b0 /
b10100010101 E
b10100010101 G
1"
#40000
0"
#45000
b0 +
b0 3
b0 7
b0 >
b0 B
b0 K
b0 O
1"
#50000
0"
#55000
x8
x9
xF
1"
